…
vancouver_trees_data_2010s <- vancouver_trees %>%
  filter(2010<=year_planted, year_planted<2020) %>%
  mutate(year = '2010s')

vancouver_trees_data_2020s <- vancouver_trees %>%
  filter(2020<=year_planted) %>%
  mutate(year = '2020s')

vancouver_trees<- bind_rows(vancouver_trees_data_1980s,vancouver_trees_data_1990s,vancouver_trees_data_2000s,vancouver_trees_data_2010s,vancouver_trees_data_2020s)

print(vancouver_trees)
```

    ## # A tibble: 70,063 × 22
    ##    tree_id civic_number std_st…¹ genus…² speci…³ culti…⁴ commo…⁵ assig…⁶ root_…⁷
    ##      <dbl>        <dbl> <chr>    <chr>   <chr>   <chr>   <chr>   <chr>   <chr>  
    ##  1   31395         2105 W 32ND … TILIA   CORDATA <NA>    LITTLE… N       N      
    ##  2   31396         2105 W 32ND … TILIA   CORDATA <NA>    LITTLE… N       N      
    ##  3   30343         3621 W 30TH … PRUNUS  CERASI… ATROPU… PISSAR… N       N      
    ##  4   30356         3727 W 30TH … PRUNUS  CERASI… ATROPU… PISSAR… N       N      
    ##  5   30359         3749 W 30TH … PRUNUS  CERASI… ATROPU… PISSAR… N       N      
    ##  6   83393         2888 HIGHBUR… PRUNUS  CERASI… ATROPU… PISSAR… N       N      
    ##  7   38849         2198 W 41ST … PRUNUS  SERRUL… KWANZAN KWANZA… N       N      
    ##  8  121796         5003 BOUNDAR… ACER    RUBRUM  RED SU… RED SU… N       N      
    ##  9  121800         5035 BOUNDAR… ACER    RUBRUM  RED SU… RED SU… N       N      
    ## 10  121802         5053 BOUNDAR… ACER    RUBRUM  RED SU… RED SU… N       N      
    ## # … with 70,053 more rows, 13 more variables: plant_area <chr>,
    ## #   on_street_block <dbl>, on_street <chr>, neighbourhood_name <chr>,
    ## #   street_side_name <chr>, height_range_id <dbl>, diameter <dbl>, curb <chr>,
    ## #   date_planted <date>, longitude <dbl>, latitude <dbl>, year_planted <dbl>,
    ## #   year <chr>, and abbreviated variable names ¹​std_street, ²​genus_name,
    ## #   ³​species_name, ⁴​cultivar_name, ⁵​common_name, ⁶​assigned, ⁷​root_barrier
…
vancouver_trees_data <- vancouver_trees %>%
  select(everything(),-irrelevant_variables)
```

    ## Note: Using an external vector in selections is ambiguous.
    ## ℹ Use `all_of(irrelevant_variables)` instead of `irrelevant_variables` to silence this message.
    ## ℹ See <https://tidyselect.r-lib.org/reference/faq-external-vector.html>.
    ## This message is displayed once per session.

``` r
print(vancouver_trees_data)
```

    ## # A tibble: 70,063 × 17
    ##    std_street    genus…¹ speci…² culti…³ commo…⁴ root_…⁵ plant…⁶ on_st…⁷ on_st…⁸
    ##    <chr>         <chr>   <chr>   <chr>   <chr>   <chr>   <chr>     <dbl> <chr>  
    ##  1 W 32ND AV     TILIA   CORDATA <NA>    LITTLE… N       4          2100 W 32ND…
    ##  2 W 32ND AV     TILIA   CORDATA <NA>    LITTLE… N       4          2100 W 32ND…
    ##  3 W 30TH AV     PRUNUS  CERASI… ATROPU… PISSAR… N       12         3600 W 30TH…
    ##  4 W 30TH AV     PRUNUS  CERASI… ATROPU… PISSAR… N       12         3700 W 30TH…
    ##  5 W 30TH AV     PRUNUS  CERASI… ATROPU… PISSAR… N       12         3700 W 30TH…
    ##  6 HIGHBURY ST   PRUNUS  CERASI… ATROPU… PISSAR… N       12         3700 W 13TH…
    ##  7 W 41ST AV     PRUNUS  SERRUL… KWANZAN KWANZA… N       G          5700 YEW ST 
    ##  8 BOUNDARY ROAD ACER    RUBRUM  RED SU… RED SU… N       6          5000 BOUNDA…
    ##  9 BOUNDARY ROAD ACER    RUBRUM  RED SU… RED SU… N       6          5000 BOUNDA…
    ## 10 BOUNDARY ROAD ACER    RUBRUM  RED SU… RED SU… N       6          5000 BOUNDA…
    ## # … with 70,053 more rows, 8 more variables: neighbourhood_name <chr>,
    ## #   street_side_name <chr>, height_range_id <dbl>, diameter <dbl>, curb <chr>,
    ## #   date_planted <date>, year_planted <dbl>, year <chr>, and abbreviated
    ## #   variable names ¹​genus_name, ²​species_name, ³​cultivar_name, ⁴​common_name,
    ## #   ⁵​root_barrier, ⁶​plant_area, ⁷​on_street_block, ⁸​on_street
…
### **Research Question \# 1: What is the most common diameter for trees in Vancouver?**

\####**Summarizing Task** For this section, I have chosen summarizing
task \# 1, as described above. The numerical variable I will be using
will be the *diameter* of the trees at breast height (in). I will be
calculating its range, mean, standard deviation, and interquartile range
for each genus of trees.

``` r
vancouver_trees_data %>%
  group_by(genus_name) %>%
  summarize(range_diameter = max(diameter)-min(diameter), mean_diameter = mean(diameter), sd_diameter = sd(diameter), IQR_diameter = IQR(diameter))
```

    ## # A tibble: 79 × 5
    ##    genus_name  range_diameter mean_diameter sd_diameter IQR_diameter
    ##    <chr>                <dbl>         <dbl>       <dbl>        <dbl>
    ##  1 ABIES                 31            6.94        5.53         8.25
    ##  2 ACER                 317            5.59        4.42         4   
    ##  3 AESCULUS              62            9.58       11.6          5   
    ##  4 ALBIZIA                0            6          NA            0   
    ##  5 ALNUS                 11            7.75        5.46         9.88
    ##  6 AMELANCHIER           18.5          3.27        1.90         0   
    ##  7 BETULA                39            9.05        5.53         5   
    ##  8 CALOCEDRUS            18.8          6.61        5.19         6   
    ##  9 CARPINUS              86            5.86        4.05         5   
    ## 10 CASTANEA              11            5.2         4.92         0   
    ## # … with 69 more rows
…
``` r
vancouver_trees_data %>%
  group_by(genus_name) %>%
  summarize(range_height_range_id = max(height_range_id)-min(height_range_id), mean_height_range_id = mean(height_range_id), sd_height_range_id = sd(height_range_id), IQR_height_range_id = IQR(height_range_id))
```

    ## # A tibble: 79 × 5
    ##    genus_name  range_height_range_id mean_height_range_id sd_height_ra…¹ IQR_h…²
    ##    <chr>                       <dbl>                <dbl>          <dbl>   <dbl>
    ##  1 ABIES                           5                 1.68          0.965    1   
    ##  2 ACER                            8                 1.75          0.943    1   
    ##  3 AESCULUS                        7                 2.20          1.60     1   
    ##  4 ALBIZIA                         0                 2            NA        0   
    ##  5 ALNUS                           3                 2.17          1.33     2   
    ##  6 AMELANCHIER                     3                 1.13          0.479    0   
    ##  7 BETULA                          5                 2.41          0.903    1   
    ##  8 CALOCEDRUS                      5                 1.64          1.29     0.75
    ##  9 CARPINUS                        6                 1.74          0.879    1   
    ## 10 CASTANEA                        3                 2.4           1.14     1   
    ## # … with 69 more rows, and abbreviated variable names ¹​sd_height_range_id,
    ## #   ²​IQR_height_range_id
…
